{
	"textures": [
		{
			"image": "assets.png",
			"format": "RGBA8888",
			"size": {
				"w": 1088,
				"h": 384
			},
			"scale": 1,
			"frames": [
				{
					"filename": "Blocks/block_01.png",
					"rotated": false,
					"trimmed": false,
					"sourceSize": {
						"w": 64,
						"h": 64
					},
					"spriteSourceSize": {
						"x": 0,
						"y": 0,
						"w": 64,
						"h": 64
					},
					"frame": {
						"x": 0,
						"y": 0,
						"w": 64,
						"h": 64
					}
				},
				{
					"filename": "Blocks/block_02.png",
					"rotated": false,
					"trimmed": false,
					"sourceSize": {
						"w": 64,
						"h": 64
					},
					"spriteSourceSize": {
						"x": 0,
						"y": 0,
						"w": 64,
						"h": 64
					},
					"frame": {
						"x": 64,
						"y": 0,
						"w": 64,
						"h": 64
					}
				},
				{
					"filename": "Blocks/block_03.png",
					"rotated": false,
					"trimmed": false,
					"sourceSize": {
						"w": 64,
						"h": 64
					},
					"spriteSourceSize": {
						"x": 0,
						"y": 0,
						"w": 64,
						"h": 64
					},
					"frame": {
						"x": 128,
						"y": 0,
						"w": 64,
						"h": 64
					}
				},
				{
					"filename": "Blocks/block_04.png",
					"rotated": false,
					"trimmed": false,
					"sourceSize": {
						"w": 64,
						"h": 64
					},
					"spriteSourceSize": {
						"x": 0,
						"y": 0,
						"w": 64,
						"h": 64
					},
					"frame": {
						"x": 192,
						"y": 0,
						"w": 64,
						"h": 64
					}
				},
				{
					"filename": "Blocks/block_05.png",
					"rotated": false,
					"trimmed": false,
					"sourceSize": {
						"w": 64,
						"h": 64
					},
					"spriteSourceSize": {
						"x": 0,
						"y": 0,
						"w": 64,
						"h": 64
					},
					"frame": {
						"x": 256,
						"y": 0,
						"w": 64,
						"h": 64
					}
				},
				{
					"filename": "Blocks/block_06.png",
					"rotated": false,
					"trimmed": false,
					"sourceSize": {
						"w": 64,
						"h": 64
					},
					"spriteSourceSize": {
						"x": 0,
						"y": 0,
						"w": 64,
						"h": 64
					},
					"frame": {
						"x": 320,
						"y": 0,
						"w": 64,
						"h": 64
					}
				},
				{
					"filename": "Blocks/block_07.png",
					"rotated": false,
					"trimmed": false,
					"sourceSize": {
						"w": 64,
						"h": 64
					},
					"spriteSourceSize": {
						"x": 0,
						"y": 0,
						"w": 64,
						"h": 64
					},
					"frame": {
						"x": 384,
						"y": 0,
						"w": 64,
						"h": 64
					}
				},
				{
					"filename": "Blocks/block_08.png",
					"rotated": false,
					"trimmed": false,
					"sourceSize": {
						"w": 64,
						"h": 64
					},
					"spriteSourceSize": {
						"x": 0,
						"y": 0,
						"w": 64,
						"h": 64
					},
					"frame": {
						"x": 448,
						"y": 0,
						"w": 64,
						"h": 64
					}
				},
				{
					"filename": "Crates/crate_01.png",
					"rotated": false,
					"trimmed": false,
					"sourceSize": {
						"w": 64,
						"h": 64
					},
					"spriteSourceSize": {
						"x": 0,
						"y": 0,
						"w": 64,
						"h": 64
					},
					"frame": {
						"x": 512,
						"y": 0,
						"w": 64,
						"h": 64
					}
				},
				{
					"filename": "Crates/crate_02.png",
					"rotated": false,
					"trimmed": false,
					"sourceSize": {
						"w": 64,
						"h": 64
					},
					"spriteSourceSize": {
						"x": 0,
						"y": 0,
						"w": 64,
						"h": 64
					},
					"frame": {
						"x": 576,
						"y": 0,
						"w": 64,
						"h": 64
					}
				},
				{
					"filename": "Crates/crate_03.png",
					"rotated": false,
					"trimmed": false,
					"sourceSize": {
						"w": 64,
						"h": 64
					},
					"spriteSourceSize": {
						"x": 0,
						"y": 0,
						"w": 64,
						"h": 64
					},
					"frame": {
						"x": 640,
						"y": 0,
						"w": 64,
						"h": 64
					}
				},
				{
					"filename": "Crates/crate_04.png",
					"rotated": false,
					"trimmed": false,
					"sourceSize": {
						"w": 64,
						"h": 64
					},
					"spriteSourceSize": {
						"x": 0,
						"y": 0,
						"w": 64,
						"h": 64
					},
					"frame": {
						"x": 704,
						"y": 0,
						"w": 64,
						"h": 64
					}
				},
				{
					"filename": "Crates/crate_05.png",
					"rotated": false,
					"trimmed": false,
					"sourceSize": {
						"w": 64,
						"h": 64
					},
					"spriteSourceSize": {
						"x": 0,
						"y": 0,
						"w": 64,
						"h": 64
					},
					"frame": {
						"x": 768,
						"y": 0,
						"w": 64,
						"h": 64
					}
				},
				{
					"filename": "Crates/crate_06.png",
					"rotated": false,
					"trimmed": false,
					"sourceSize": {
						"w": 64,
						"h": 64
					},
					"spriteSourceSize": {
						"x": 0,
						"y": 0,
						"w": 64,
						"h": 64
					},
					"frame": {
						"x": 832,
						"y": 0,
						"w": 64,
						"h": 64
					}
				},
				{
					"filename": "Crates/crate_07.png",
					"rotated": false,
					"trimmed": false,
					"sourceSize": {
						"w": 64,
						"h": 64
					},
					"spriteSourceSize": {
						"x": 0,
						"y": 0,
						"w": 64,
						"h": 64
					},
					"frame": {
						"x": 896,
						"y": 0,
						"w": 64,
						"h": 64
					}
				},
				{
					"filename": "Crates/crate_08.png",
					"rotated": false,
					"trimmed": false,
					"sourceSize": {
						"w": 64,
						"h": 64
					},
					"spriteSourceSize": {
						"x": 0,
						"y": 0,
						"w": 64,
						"h": 64
					},
					"frame": {
						"x": 960,
						"y": 0,
						"w": 64,
						"h": 64
					}
				},
				{
					"filename": "Crates/crate_09.png",
					"rotated": false,
					"trimmed": false,
					"sourceSize": {
						"w": 64,
						"h": 64
					},
					"spriteSourceSize": {
						"x": 0,
						"y": 0,
						"w": 64,
						"h": 64
					},
					"frame": {
						"x": 1024,
						"y": 0,
						"w": 64,
						"h": 64
					}
				},
				{
					"filename": "Crates/crate_10.png",
					"rotated": false,
					"trimmed": false,
					"sourceSize": {
						"w": 64,
						"h": 64
					},
					"spriteSourceSize": {
						"x": 0,
						"y": 0,
						"w": 64,
						"h": 64
					},
					"frame": {
						"x": 0,
						"y": 64,
						"w": 64,
						"h": 64
					}
				},
				{
					"filename": "Crates/crate_11.png",
					"rotated": false,
					"trimmed": false,
					"sourceSize": {
						"w": 64,
						"h": 64
					},
					"spriteSourceSize": {
						"x": 0,
						"y": 0,
						"w": 64,
						"h": 64
					},
					"frame": {
						"x": 64,
						"y": 64,
						"w": 64,
						"h": 64
					}
				},
				{
					"filename": "Crates/crate_12.png",
					"rotated": false,
					"trimmed": false,
					"sourceSize": {
						"w": 64,
						"h": 64
					},
					"spriteSourceSize": {
						"x": 0,
						"y": 0,
						"w": 64,
						"h": 64
					},
					"frame": {
						"x": 128,
						"y": 64,
						"w": 64,
						"h": 64
					}
				},
				{
					"filename": "Crates/crate_13.png",
					"rotated": false,
					"trimmed": false,
					"sourceSize": {
						"w": 64,
						"h": 64
					},
					"spriteSourceSize": {
						"x": 0,
						"y": 0,
						"w": 64,
						"h": 64
					},
					"frame": {
						"x": 192,
						"y": 64,
						"w": 64,
						"h": 64
					}
				},
				{
					"filename": "Crates/crate_14.png",
					"rotated": false,
					"trimmed": false,
					"sourceSize": {
						"w": 64,
						"h": 64
					},
					"spriteSourceSize": {
						"x": 0,
						"y": 0,
						"w": 64,
						"h": 64
					},
					"frame": {
						"x": 256,
						"y": 64,
						"w": 64,
						"h": 64
					}
				},
				{
					"filename": "Crates/crate_15.png",
					"rotated": false,
					"trimmed": false,
					"sourceSize": {
						"w": 64,
						"h": 64
					},
					"spriteSourceSize": {
						"x": 0,
						"y": 0,
						"w": 64,
						"h": 64
					},
					"frame": {
						"x": 320,
						"y": 64,
						"w": 64,
						"h": 64
					}
				},
				{
					"filename": "Crates/crate_16.png",
					"rotated": false,
					"trimmed": false,
					"sourceSize": {
						"w": 64,
						"h": 64
					},
					"spriteSourceSize": {
						"x": 0,
						"y": 0,
						"w": 64,
						"h": 64
					},
					"frame": {
						"x": 384,
						"y": 64,
						"w": 64,
						"h": 64
					}
				},
				{
					"filename": "Crates/crate_17.png",
					"rotated": false,
					"trimmed": false,
					"sourceSize": {
						"w": 64,
						"h": 64
					},
					"spriteSourceSize": {
						"x": 0,
						"y": 0,
						"w": 64,
						"h": 64
					},
					"frame": {
						"x": 448,
						"y": 64,
						"w": 64,
						"h": 64
					}
				},
				{
					"filename": "Crates/crate_18.png",
					"rotated": false,
					"trimmed": false,
					"sourceSize": {
						"w": 64,
						"h": 64
					},
					"spriteSourceSize": {
						"x": 0,
						"y": 0,
						"w": 64,
						"h": 64
					},
					"frame": {
						"x": 512,
						"y": 64,
						"w": 64,
						"h": 64
					}
				},
				{
					"filename": "Crates/crate_19.png",
					"rotated": false,
					"trimmed": false,
					"sourceSize": {
						"w": 64,
						"h": 64
					},
					"spriteSourceSize": {
						"x": 0,
						"y": 0,
						"w": 64,
						"h": 64
					},
					"frame": {
						"x": 576,
						"y": 64,
						"w": 64,
						"h": 64
					}
				},
				{
					"filename": "Crates/crate_20.png",
					"rotated": false,
					"trimmed": false,
					"sourceSize": {
						"w": 64,
						"h": 64
					},
					"spriteSourceSize": {
						"x": 0,
						"y": 0,
						"w": 64,
						"h": 64
					},
					"frame": {
						"x": 640,
						"y": 64,
						"w": 64,
						"h": 64
					}
				},
				{
					"filename": "Crates/crate_21.png",
					"rotated": false,
					"trimmed": false,
					"sourceSize": {
						"w": 64,
						"h": 64
					},
					"spriteSourceSize": {
						"x": 0,
						"y": 0,
						"w": 64,
						"h": 64
					},
					"frame": {
						"x": 704,
						"y": 64,
						"w": 64,
						"h": 64
					}
				},
				{
					"filename": "Crates/crate_22.png",
					"rotated": false,
					"trimmed": false,
					"sourceSize": {
						"w": 64,
						"h": 64
					},
					"spriteSourceSize": {
						"x": 0,
						"y": 0,
						"w": 64,
						"h": 64
					},
					"frame": {
						"x": 768,
						"y": 64,
						"w": 64,
						"h": 64
					}
				},
				{
					"filename": "Crates/crate_23.png",
					"rotated": false,
					"trimmed": false,
					"sourceSize": {
						"w": 64,
						"h": 64
					},
					"spriteSourceSize": {
						"x": 0,
						"y": 0,
						"w": 64,
						"h": 64
					},
					"frame": {
						"x": 832,
						"y": 64,
						"w": 64,
						"h": 64
					}
				},
				{
					"filename": "Crates/crate_24.png",
					"rotated": false,
					"trimmed": false,
					"sourceSize": {
						"w": 64,
						"h": 64
					},
					"spriteSourceSize": {
						"x": 0,
						"y": 0,
						"w": 64,
						"h": 64
					},
					"frame": {
						"x": 896,
						"y": 64,
						"w": 64,
						"h": 64
					}
				},
				{
					"filename": "Crates/crate_25.png",
					"rotated": false,
					"trimmed": false,
					"sourceSize": {
						"w": 64,
						"h": 64
					},
					"spriteSourceSize": {
						"x": 0,
						"y": 0,
						"w": 64,
						"h": 64
					},
					"frame": {
						"x": 960,
						"y": 64,
						"w": 64,
						"h": 64
					}
				},
				{
					"filename": "Crates/crate_26.png",
					"rotated": false,
					"trimmed": false,
					"sourceSize": {
						"w": 64,
						"h": 64
					},
					"spriteSourceSize": {
						"x": 0,
						"y": 0,
						"w": 64,
						"h": 64
					},
					"frame": {
						"x": 1024,
						"y": 64,
						"w": 64,
						"h": 64
					}
				},
				{
					"filename": "Crates/crate_27.png",
					"rotated": false,
					"trimmed": false,
					"sourceSize": {
						"w": 64,
						"h": 64
					},
					"spriteSourceSize": {
						"x": 0,
						"y": 0,
						"w": 64,
						"h": 64
					},
					"frame": {
						"x": 0,
						"y": 128,
						"w": 64,
						"h": 64
					}
				},
				{
					"filename": "Crates/crate_28.png",
					"rotated": false,
					"trimmed": false,
					"sourceSize": {
						"w": 64,
						"h": 64
					},
					"spriteSourceSize": {
						"x": 0,
						"y": 0,
						"w": 64,
						"h": 64
					},
					"frame": {
						"x": 64,
						"y": 128,
						"w": 64,
						"h": 64
					}
				},
				{
					"filename": "Crates/crate_29.png",
					"rotated": false,
					"trimmed": false,
					"sourceSize": {
						"w": 64,
						"h": 64
					},
					"spriteSourceSize": {
						"x": 0,
						"y": 0,
						"w": 64,
						"h": 64
					},
					"frame": {
						"x": 128,
						"y": 128,
						"w": 64,
						"h": 64
					}
				},
				{
					"filename": "Crates/crate_30.png",
					"rotated": false,
					"trimmed": false,
					"sourceSize": {
						"w": 64,
						"h": 64
					},
					"spriteSourceSize": {
						"x": 0,
						"y": 0,
						"w": 64,
						"h": 64
					},
					"frame": {
						"x": 192,
						"y": 128,
						"w": 64,
						"h": 64
					}
				},
				{
					"filename": "Crates/crate_31.png",
					"rotated": false,
					"trimmed": false,
					"sourceSize": {
						"w": 64,
						"h": 64
					},
					"spriteSourceSize": {
						"x": 0,
						"y": 0,
						"w": 64,
						"h": 64
					},
					"frame": {
						"x": 256,
						"y": 128,
						"w": 64,
						"h": 64
					}
				},
				{
					"filename": "Crates/crate_32.png",
					"rotated": false,
					"trimmed": false,
					"sourceSize": {
						"w": 64,
						"h": 64
					},
					"spriteSourceSize": {
						"x": 0,
						"y": 0,
						"w": 64,
						"h": 64
					},
					"frame": {
						"x": 320,
						"y": 128,
						"w": 64,
						"h": 64
					}
				},
				{
					"filename": "Crates/crate_33.png",
					"rotated": false,
					"trimmed": false,
					"sourceSize": {
						"w": 64,
						"h": 64
					},
					"spriteSourceSize": {
						"x": 0,
						"y": 0,
						"w": 64,
						"h": 64
					},
					"frame": {
						"x": 384,
						"y": 128,
						"w": 64,
						"h": 64
					}
				},
				{
					"filename": "Crates/crate_34.png",
					"rotated": false,
					"trimmed": false,
					"sourceSize": {
						"w": 64,
						"h": 64
					},
					"spriteSourceSize": {
						"x": 0,
						"y": 0,
						"w": 64,
						"h": 64
					},
					"frame": {
						"x": 448,
						"y": 128,
						"w": 64,
						"h": 64
					}
				},
				{
					"filename": "Crates/crate_35.png",
					"rotated": false,
					"trimmed": false,
					"sourceSize": {
						"w": 64,
						"h": 64
					},
					"spriteSourceSize": {
						"x": 0,
						"y": 0,
						"w": 64,
						"h": 64
					},
					"frame": {
						"x": 512,
						"y": 128,
						"w": 64,
						"h": 64
					}
				},
				{
					"filename": "Crates/crate_36.png",
					"rotated": false,
					"trimmed": false,
					"sourceSize": {
						"w": 64,
						"h": 64
					},
					"spriteSourceSize": {
						"x": 0,
						"y": 0,
						"w": 64,
						"h": 64
					},
					"frame": {
						"x": 576,
						"y": 128,
						"w": 64,
						"h": 64
					}
				},
				{
					"filename": "Crates/crate_37.png",
					"rotated": false,
					"trimmed": false,
					"sourceSize": {
						"w": 64,
						"h": 64
					},
					"spriteSourceSize": {
						"x": 0,
						"y": 0,
						"w": 64,
						"h": 64
					},
					"frame": {
						"x": 640,
						"y": 128,
						"w": 64,
						"h": 64
					}
				},
				{
					"filename": "Crates/crate_38.png",
					"rotated": false,
					"trimmed": false,
					"sourceSize": {
						"w": 64,
						"h": 64
					},
					"spriteSourceSize": {
						"x": 0,
						"y": 0,
						"w": 64,
						"h": 64
					},
					"frame": {
						"x": 704,
						"y": 128,
						"w": 64,
						"h": 64
					}
				},
				{
					"filename": "Crates/crate_39.png",
					"rotated": false,
					"trimmed": false,
					"sourceSize": {
						"w": 64,
						"h": 64
					},
					"spriteSourceSize": {
						"x": 0,
						"y": 0,
						"w": 64,
						"h": 64
					},
					"frame": {
						"x": 768,
						"y": 128,
						"w": 64,
						"h": 64
					}
				},
				{
					"filename": "Crates/crate_40.png",
					"rotated": false,
					"trimmed": false,
					"sourceSize": {
						"w": 64,
						"h": 64
					},
					"spriteSourceSize": {
						"x": 0,
						"y": 0,
						"w": 64,
						"h": 64
					},
					"frame": {
						"x": 832,
						"y": 128,
						"w": 64,
						"h": 64
					}
				},
				{
					"filename": "Crates/crate_41.png",
					"rotated": false,
					"trimmed": false,
					"sourceSize": {
						"w": 64,
						"h": 64
					},
					"spriteSourceSize": {
						"x": 0,
						"y": 0,
						"w": 64,
						"h": 64
					},
					"frame": {
						"x": 896,
						"y": 128,
						"w": 64,
						"h": 64
					}
				},
				{
					"filename": "Crates/crate_42.png",
					"rotated": false,
					"trimmed": false,
					"sourceSize": {
						"w": 64,
						"h": 64
					},
					"spriteSourceSize": {
						"x": 0,
						"y": 0,
						"w": 64,
						"h": 64
					},
					"frame": {
						"x": 960,
						"y": 128,
						"w": 64,
						"h": 64
					}
				},
				{
					"filename": "Crates/crate_43.png",
					"rotated": false,
					"trimmed": false,
					"sourceSize": {
						"w": 64,
						"h": 64
					},
					"spriteSourceSize": {
						"x": 0,
						"y": 0,
						"w": 64,
						"h": 64
					},
					"frame": {
						"x": 1024,
						"y": 128,
						"w": 64,
						"h": 64
					}
				},
				{
					"filename": "Crates/crate_44.png",
					"rotated": false,
					"trimmed": false,
					"sourceSize": {
						"w": 64,
						"h": 64
					},
					"spriteSourceSize": {
						"x": 0,
						"y": 0,
						"w": 64,
						"h": 64
					},
					"frame": {
						"x": 0,
						"y": 192,
						"w": 64,
						"h": 64
					}
				},
				{
					"filename": "Crates/crate_45.png",
					"rotated": false,
					"trimmed": false,
					"sourceSize": {
						"w": 64,
						"h": 64
					},
					"spriteSourceSize": {
						"x": 0,
						"y": 0,
						"w": 64,
						"h": 64
					},
					"frame": {
						"x": 64,
						"y": 192,
						"w": 64,
						"h": 64
					}
				},
				{
					"filename": "Environment/environment_01.png",
					"rotated": false,
					"trimmed": false,
					"sourceSize": {
						"w": 64,
						"h": 64
					},
					"spriteSourceSize": {
						"x": 0,
						"y": 0,
						"w": 64,
						"h": 64
					},
					"frame": {
						"x": 128,
						"y": 192,
						"w": 64,
						"h": 64
					}
				},
				{
					"filename": "Environment/environment_02.png",
					"rotated": false,
					"trimmed": false,
					"sourceSize": {
						"w": 64,
						"h": 64
					},
					"spriteSourceSize": {
						"x": 0,
						"y": 0,
						"w": 64,
						"h": 64
					},
					"frame": {
						"x": 192,
						"y": 192,
						"w": 64,
						"h": 64
					}
				},
				{
					"filename": "Environment/environment_03.png",
					"rotated": false,
					"trimmed": false,
					"sourceSize": {
						"w": 64,
						"h": 64
					},
					"spriteSourceSize": {
						"x": 0,
						"y": 0,
						"w": 64,
						"h": 64
					},
					"frame": {
						"x": 256,
						"y": 192,
						"w": 64,
						"h": 64
					}
				},
				{
					"filename": "Environment/environment_04.png",
					"rotated": false,
					"trimmed": false,
					"sourceSize": {
						"w": 64,
						"h": 64
					},
					"spriteSourceSize": {
						"x": 0,
						"y": 0,
						"w": 64,
						"h": 64
					},
					"frame": {
						"x": 320,
						"y": 192,
						"w": 64,
						"h": 64
					}
				},
				{
					"filename": "Environment/environment_05.png",
					"rotated": false,
					"trimmed": false,
					"sourceSize": {
						"w": 64,
						"h": 64
					},
					"spriteSourceSize": {
						"x": 0,
						"y": 0,
						"w": 64,
						"h": 64
					},
					"frame": {
						"x": 384,
						"y": 192,
						"w": 64,
						"h": 64
					}
				},
				{
					"filename": "Environment/environment_06.png",
					"rotated": false,
					"trimmed": false,
					"sourceSize": {
						"w": 64,
						"h": 64
					},
					"spriteSourceSize": {
						"x": 0,
						"y": 0,
						"w": 64,
						"h": 64
					},
					"frame": {
						"x": 448,
						"y": 192,
						"w": 64,
						"h": 64
					}
				},
				{
					"filename": "Environment/environment_07.png",
					"rotated": false,
					"trimmed": false,
					"sourceSize": {
						"w": 64,
						"h": 64
					},
					"spriteSourceSize": {
						"x": 0,
						"y": 0,
						"w": 64,
						"h": 64
					},
					"frame": {
						"x": 512,
						"y": 192,
						"w": 64,
						"h": 64
					}
				},
				{
					"filename": "Environment/environment_08.png",
					"rotated": false,
					"trimmed": false,
					"sourceSize": {
						"w": 64,
						"h": 64
					},
					"spriteSourceSize": {
						"x": 0,
						"y": 0,
						"w": 64,
						"h": 64
					},
					"frame": {
						"x": 576,
						"y": 192,
						"w": 64,
						"h": 64
					}
				},
				{
					"filename": "Environment/environment_09.png",
					"rotated": false,
					"trimmed": false,
					"sourceSize": {
						"w": 64,
						"h": 64
					},
					"spriteSourceSize": {
						"x": 0,
						"y": 0,
						"w": 64,
						"h": 64
					},
					"frame": {
						"x": 640,
						"y": 192,
						"w": 64,
						"h": 64
					}
				},
				{
					"filename": "Environment/environment_10.png",
					"rotated": false,
					"trimmed": false,
					"sourceSize": {
						"w": 64,
						"h": 64
					},
					"spriteSourceSize": {
						"x": 0,
						"y": 0,
						"w": 64,
						"h": 64
					},
					"frame": {
						"x": 704,
						"y": 192,
						"w": 64,
						"h": 64
					}
				},
				{
					"filename": "Environment/environment_11.png",
					"rotated": false,
					"trimmed": false,
					"sourceSize": {
						"w": 64,
						"h": 64
					},
					"spriteSourceSize": {
						"x": 0,
						"y": 0,
						"w": 64,
						"h": 64
					},
					"frame": {
						"x": 768,
						"y": 192,
						"w": 64,
						"h": 64
					}
				},
				{
					"filename": "Environment/environment_12.png",
					"rotated": false,
					"trimmed": false,
					"sourceSize": {
						"w": 64,
						"h": 64
					},
					"spriteSourceSize": {
						"x": 0,
						"y": 0,
						"w": 64,
						"h": 64
					},
					"frame": {
						"x": 832,
						"y": 192,
						"w": 64,
						"h": 64
					}
				},
				{
					"filename": "Environment/environment_13.png",
					"rotated": false,
					"trimmed": false,
					"sourceSize": {
						"w": 64,
						"h": 64
					},
					"spriteSourceSize": {
						"x": 0,
						"y": 0,
						"w": 64,
						"h": 64
					},
					"frame": {
						"x": 896,
						"y": 192,
						"w": 64,
						"h": 64
					}
				},
				{
					"filename": "Environment/environment_14.png",
					"rotated": false,
					"trimmed": false,
					"sourceSize": {
						"w": 64,
						"h": 64
					},
					"spriteSourceSize": {
						"x": 0,
						"y": 0,
						"w": 64,
						"h": 64
					},
					"frame": {
						"x": 960,
						"y": 192,
						"w": 64,
						"h": 64
					}
				},
				{
					"filename": "Environment/environment_15.png",
					"rotated": false,
					"trimmed": false,
					"sourceSize": {
						"w": 64,
						"h": 64
					},
					"spriteSourceSize": {
						"x": 0,
						"y": 0,
						"w": 64,
						"h": 64
					},
					"frame": {
						"x": 1024,
						"y": 192,
						"w": 64,
						"h": 64
					}
				},
				{
					"filename": "Environment/environment_16.png",
					"rotated": false,
					"trimmed": false,
					"sourceSize": {
						"w": 64,
						"h": 64
					},
					"spriteSourceSize": {
						"x": 0,
						"y": 0,
						"w": 64,
						"h": 64
					},
					"frame": {
						"x": 0,
						"y": 256,
						"w": 64,
						"h": 64
					}
				},
				{
					"filename": "Ground/ground_01.png",
					"rotated": false,
					"trimmed": false,
					"sourceSize": {
						"w": 64,
						"h": 64
					},
					"spriteSourceSize": {
						"x": 0,
						"y": 0,
						"w": 64,
						"h": 64
					},
					"frame": {
						"x": 64,
						"y": 256,
						"w": 64,
						"h": 64
					}
				},
				{
					"filename": "Ground/ground_02.png",
					"rotated": false,
					"trimmed": false,
					"sourceSize": {
						"w": 64,
						"h": 64
					},
					"spriteSourceSize": {
						"x": 0,
						"y": 0,
						"w": 64,
						"h": 64
					},
					"frame": {
						"x": 128,
						"y": 256,
						"w": 64,
						"h": 64
					}
				},
				{
					"filename": "Ground/ground_03.png",
					"rotated": false,
					"trimmed": false,
					"sourceSize": {
						"w": 64,
						"h": 64
					},
					"spriteSourceSize": {
						"x": 0,
						"y": 0,
						"w": 64,
						"h": 64
					},
					"frame": {
						"x": 192,
						"y": 256,
						"w": 64,
						"h": 64
					}
				},
				{
					"filename": "Ground/ground_04.png",
					"rotated": false,
					"trimmed": false,
					"sourceSize": {
						"w": 64,
						"h": 64
					},
					"spriteSourceSize": {
						"x": 0,
						"y": 0,
						"w": 64,
						"h": 64
					},
					"frame": {
						"x": 256,
						"y": 256,
						"w": 64,
						"h": 64
					}
				},
				{
					"filename": "Ground/ground_05.png",
					"rotated": false,
					"trimmed": false,
					"sourceSize": {
						"w": 64,
						"h": 64
					},
					"spriteSourceSize": {
						"x": 0,
						"y": 0,
						"w": 64,
						"h": 64
					},
					"frame": {
						"x": 320,
						"y": 256,
						"w": 64,
						"h": 64
					}
				},
				{
					"filename": "Ground/ground_06.png",
					"rotated": false,
					"trimmed": false,
					"sourceSize": {
						"w": 64,
						"h": 64
					},
					"spriteSourceSize": {
						"x": 0,
						"y": 0,
						"w": 64,
						"h": 64
					},
					"frame": {
						"x": 384,
						"y": 256,
						"w": 64,
						"h": 64
					}
				},
				{
					"filename": "Player/Dark/player_01.png",
					"rotated": false,
					"trimmed": false,
					"sourceSize": {
						"w": 64,
						"h": 64
					},
					"spriteSourceSize": {
						"x": 0,
						"y": 0,
						"w": 64,
						"h": 64
					},
					"frame": {
						"x": 448,
						"y": 256,
						"w": 64,
						"h": 64
					}
				},
				{
					"filename": "Player/Dark/player_02.png",
					"rotated": false,
					"trimmed": false,
					"sourceSize": {
						"w": 64,
						"h": 64
					},
					"spriteSourceSize": {
						"x": 0,
						"y": 0,
						"w": 64,
						"h": 64
					},
					"frame": {
						"x": 512,
						"y": 256,
						"w": 64,
						"h": 64
					}
				},
				{
					"filename": "Player/Dark/player_03.png",
					"rotated": false,
					"trimmed": false,
					"sourceSize": {
						"w": 64,
						"h": 64
					},
					"spriteSourceSize": {
						"x": 0,
						"y": 0,
						"w": 64,
						"h": 64
					},
					"frame": {
						"x": 576,
						"y": 256,
						"w": 64,
						"h": 64
					}
				},
				{
					"filename": "Player/Dark/player_04.png",
					"rotated": false,
					"trimmed": false,
					"sourceSize": {
						"w": 64,
						"h": 64
					},
					"spriteSourceSize": {
						"x": 0,
						"y": 0,
						"w": 64,
						"h": 64
					},
					"frame": {
						"x": 640,
						"y": 256,
						"w": 64,
						"h": 64
					}
				},
				{
					"filename": "Player/Dark/player_05.png",
					"rotated": false,
					"trimmed": false,
					"sourceSize": {
						"w": 64,
						"h": 64
					},
					"spriteSourceSize": {
						"x": 0,
						"y": 0,
						"w": 64,
						"h": 64
					},
					"frame": {
						"x": 704,
						"y": 256,
						"w": 64,
						"h": 64
					}
				},
				{
					"filename": "Player/Dark/player_06.png",
					"rotated": false,
					"trimmed": false,
					"sourceSize": {
						"w": 64,
						"h": 64
					},
					"spriteSourceSize": {
						"x": 0,
						"y": 0,
						"w": 64,
						"h": 64
					},
					"frame": {
						"x": 768,
						"y": 256,
						"w": 64,
						"h": 64
					}
				},
				{
					"filename": "Player/Dark/player_07.png",
					"rotated": false,
					"trimmed": false,
					"sourceSize": {
						"w": 64,
						"h": 64
					},
					"spriteSourceSize": {
						"x": 0,
						"y": 0,
						"w": 64,
						"h": 64
					},
					"frame": {
						"x": 832,
						"y": 256,
						"w": 64,
						"h": 64
					}
				},
				{
					"filename": "Player/Dark/player_08.png",
					"rotated": false,
					"trimmed": false,
					"sourceSize": {
						"w": 64,
						"h": 64
					},
					"spriteSourceSize": {
						"x": 0,
						"y": 0,
						"w": 64,
						"h": 64
					},
					"frame": {
						"x": 896,
						"y": 256,
						"w": 64,
						"h": 64
					}
				},
				{
					"filename": "Player/Dark/player_09.png",
					"rotated": false,
					"trimmed": false,
					"sourceSize": {
						"w": 64,
						"h": 64
					},
					"spriteSourceSize": {
						"x": 0,
						"y": 0,
						"w": 64,
						"h": 64
					},
					"frame": {
						"x": 960,
						"y": 256,
						"w": 64,
						"h": 64
					}
				},
				{
					"filename": "Player/Dark/player_10.png",
					"rotated": false,
					"trimmed": false,
					"sourceSize": {
						"w": 64,
						"h": 64
					},
					"spriteSourceSize": {
						"x": 0,
						"y": 0,
						"w": 64,
						"h": 64
					},
					"frame": {
						"x": 1024,
						"y": 256,
						"w": 64,
						"h": 64
					}
				},
				{
					"filename": "Player/Dark/player_11.png",
					"rotated": false,
					"trimmed": false,
					"sourceSize": {
						"w": 64,
						"h": 64
					},
					"spriteSourceSize": {
						"x": 0,
						"y": 0,
						"w": 64,
						"h": 64
					},
					"frame": {
						"x": 0,
						"y": 320,
						"w": 64,
						"h": 64
					}
				},
				{
					"filename": "Player/Dark/player_12.png",
					"rotated": false,
					"trimmed": false,
					"sourceSize": {
						"w": 64,
						"h": 64
					},
					"spriteSourceSize": {
						"x": 0,
						"y": 0,
						"w": 64,
						"h": 64
					},
					"frame": {
						"x": 64,
						"y": 320,
						"w": 64,
						"h": 64
					}
				},
				{
					"filename": "Player/Dark/playerFace_dark.png",
					"rotated": false,
					"trimmed": false,
					"sourceSize": {
						"w": 64,
						"h": 64
					},
					"spriteSourceSize": {
						"x": 0,
						"y": 0,
						"w": 64,
						"h": 64
					},
					"frame": {
						"x": 128,
						"y": 320,
						"w": 64,
						"h": 64
					}
				},
				{
					"filename": "Player/player_01.png",
					"rotated": false,
					"trimmed": false,
					"sourceSize": {
						"w": 64,
						"h": 64
					},
					"spriteSourceSize": {
						"x": 0,
						"y": 0,
						"w": 64,
						"h": 64
					},
					"frame": {
						"x": 192,
						"y": 320,
						"w": 64,
						"h": 64
					}
				},
				{
					"filename": "Player/player_02.png",
					"rotated": false,
					"trimmed": false,
					"sourceSize": {
						"w": 64,
						"h": 64
					},
					"spriteSourceSize": {
						"x": 0,
						"y": 0,
						"w": 64,
						"h": 64
					},
					"frame": {
						"x": 256,
						"y": 320,
						"w": 64,
						"h": 64
					}
				},
				{
					"filename": "Player/player_03.png",
					"rotated": false,
					"trimmed": false,
					"sourceSize": {
						"w": 64,
						"h": 64
					},
					"spriteSourceSize": {
						"x": 0,
						"y": 0,
						"w": 64,
						"h": 64
					},
					"frame": {
						"x": 320,
						"y": 320,
						"w": 64,
						"h": 64
					}
				},
				{
					"filename": "Player/player_04.png",
					"rotated": false,
					"trimmed": false,
					"sourceSize": {
						"w": 64,
						"h": 64
					},
					"spriteSourceSize": {
						"x": 0,
						"y": 0,
						"w": 64,
						"h": 64
					},
					"frame": {
						"x": 384,
						"y": 320,
						"w": 64,
						"h": 64
					}
				},
				{
					"filename": "Player/player_05.png",
					"rotated": false,
					"trimmed": false,
					"sourceSize": {
						"w": 64,
						"h": 64
					},
					"spriteSourceSize": {
						"x": 0,
						"y": 0,
						"w": 64,
						"h": 64
					},
					"frame": {
						"x": 448,
						"y": 320,
						"w": 64,
						"h": 64
					}
				},
				{
					"filename": "Player/player_06.png",
					"rotated": false,
					"trimmed": false,
					"sourceSize": {
						"w": 64,
						"h": 64
					},
					"spriteSourceSize": {
						"x": 0,
						"y": 0,
						"w": 64,
						"h": 64
					},
					"frame": {
						"x": 512,
						"y": 320,
						"w": 64,
						"h": 64
					}
				},
				{
					"filename": "Player/player_07.png",
					"rotated": false,
					"trimmed": false,
					"sourceSize": {
						"w": 64,
						"h": 64
					},
					"spriteSourceSize": {
						"x": 0,
						"y": 0,
						"w": 64,
						"h": 64
					},
					"frame": {
						"x": 576,
						"y": 320,
						"w": 64,
						"h": 64
					}
				},
				{
					"filename": "Player/player_08.png",
					"rotated": false,
					"trimmed": false,
					"sourceSize": {
						"w": 64,
						"h": 64
					},
					"spriteSourceSize": {
						"x": 0,
						"y": 0,
						"w": 64,
						"h": 64
					},
					"frame": {
						"x": 640,
						"y": 320,
						"w": 64,
						"h": 64
					}
				},
				{
					"filename": "Player/player_09.png",
					"rotated": false,
					"trimmed": false,
					"sourceSize": {
						"w": 64,
						"h": 64
					},
					"spriteSourceSize": {
						"x": 0,
						"y": 0,
						"w": 64,
						"h": 64
					},
					"frame": {
						"x": 704,
						"y": 320,
						"w": 64,
						"h": 64
					}
				},
				{
					"filename": "Player/player_10.png",
					"rotated": false,
					"trimmed": false,
					"sourceSize": {
						"w": 64,
						"h": 64
					},
					"spriteSourceSize": {
						"x": 0,
						"y": 0,
						"w": 64,
						"h": 64
					},
					"frame": {
						"x": 768,
						"y": 320,
						"w": 64,
						"h": 64
					}
				},
				{
					"filename": "Player/player_11.png",
					"rotated": false,
					"trimmed": false,
					"sourceSize": {
						"w": 64,
						"h": 64
					},
					"spriteSourceSize": {
						"x": 0,
						"y": 0,
						"w": 64,
						"h": 64
					},
					"frame": {
						"x": 832,
						"y": 320,
						"w": 64,
						"h": 64
					}
				},
				{
					"filename": "Player/player_12.png",
					"rotated": false,
					"trimmed": false,
					"sourceSize": {
						"w": 64,
						"h": 64
					},
					"spriteSourceSize": {
						"x": 0,
						"y": 0,
						"w": 64,
						"h": 64
					},
					"frame": {
						"x": 896,
						"y": 320,
						"w": 64,
						"h": 64
					}
				},
				{
					"filename": "Player/playerFace.png",
					"rotated": false,
					"trimmed": false,
					"sourceSize": {
						"w": 64,
						"h": 64
					},
					"spriteSourceSize": {
						"x": 0,
						"y": 0,
						"w": 64,
						"h": 64
					},
					"frame": {
						"x": 960,
						"y": 320,
						"w": 64,
						"h": 64
					}
				},
				{
					"filename": "Player/playerFace_outline.png",
					"rotated": false,
					"trimmed": false,
					"sourceSize": {
						"w": 64,
						"h": 64
					},
					"spriteSourceSize": {
						"x": 0,
						"y": 0,
						"w": 64,
						"h": 64
					},
					"frame": {
						"x": 1024,
						"y": 320,
						"w": 64,
						"h": 64
					}
				}
			]
		}
	],
	"meta": {
		"app": "https://www.codeandweb.com/texturepacker",
		"version": "3.0",
		"smartupdate": "$TexturePacker:SmartUpdate:2c1891d249241d19cf486b0988674a51:d6d6651ca8a3e6b91ae5a2797de5b262:a759b6bbc8381ac9c472b28f589ad0d6$"
	}
}
